simulation/qsim/Poker.msim.vcd
$comment
	File created using the following command:
		vcd file Poker.msim.vcd -direction
$end
$date
	Mon Jun 14 18:36:07 2021
$end
$version
	ModelSim Version 10.1e
$end
$timescale
	1ps
$end
$scope module Poker_Controller_vlg_vec_tst $end
$var reg 1 ! clk $end
$var reg 1 " P1_Race $end
$var reg 1 # P1_Roll $end
$var reg 1 $ P2_Race $end
$var reg 1 % P2_Roll $end
$var reg 1 & Switch $end
$var wire 1 ' Current_Seg [0] $end
$var wire 1 ( Current_Seg [1] $end
$var wire 1 ) Current_Seg [2] $end
$var wire 1 * Current_Seg [3] $end
$var wire 1 + P1Score_Seg [0] $end
$var wire 1 , P1Score_Seg [1] $end
$var wire 1 - P2Score_Seg [0] $end
$var wire 1 . P2Score_Seg [1] $end
$var wire 1 / Random_Seg [0] $end
$var wire 1 0 Random_Seg [1] $end
$var wire 1 1 Random_Seg [2] $end
$var wire 1 2 Random_Seg [3] $end
$var wire 1 3 sampler $end
$scope module i1 $end
$var wire 1 4 gnd $end
$var wire 1 5 vcc $end
$var wire 1 6 unknown $end
$var tri1 1 7 devclrn $end
$var tri1 1 8 devpor $end
$var tri1 1 9 devoe $end
$var wire 1 : ~QUARTUS_CREATED_GND~I_combout $end
$var wire 1 ; clk~input_o $end
$var wire 1 < clk~inputCLKENA0_outclk $end
$var wire 1 = temp~3_combout $end
$var wire 1 > Switch~input_o $end
$var wire 1 ? temp~1_combout $end
$var wire 1 @ temp~2_combout $end
$var wire 1 A temp~0_combout $end
$var wire 1 B Random_Seg[3]~3_combout $end
$var wire 1 C P2_Roll~input_o $end
$var wire 1 D P1_Roll~input_o $end
$var wire 1 E P2_Race~input_o $end
$var wire 1 F Random_Seg[2]~reg0_q $end
$var wire 1 G current_number~3_combout $end
$var wire 1 H current_number~2_combout $end
$var wire 1 I current_number~1_combout $end
$var wire 1 J current_number~0_combout $end
$var wire 1 K Random_Seg[1]~reg0_q $end
$var wire 1 L Equal8~1_combout $end
$var wire 1 M P1_Race~input_o $end
$var wire 1 N Random_Seg[0]~reg0_q $end
$var wire 1 O Equal8~0_combout $end
$var wire 1 P current_state[1]~0_combout $end
$var wire 1 Q Add3~2 $end
$var wire 1 R Add3~113_sumout $end
$var wire 1 S Equal4~6_combout $end
$var wire 1 T Equal4~3_combout $end
$var wire 1 U Equal4~4_combout $end
$var wire 1 V Add3~66 $end
$var wire 1 W Add3~69_sumout $end
$var wire 1 X current_player[11]~2_combout $end
$var wire 1 Y current_player[11]~1_combout $end
$var wire 1 Z Add3~70 $end
$var wire 1 [ Add3~73_sumout $end
$var wire 1 \ Add3~74 $end
$var wire 1 ] Add3~29_sumout $end
$var wire 1 ^ Add3~30 $end
$var wire 1 _ Add3~33_sumout $end
$var wire 1 ` Add3~34 $end
$var wire 1 a Add3~37_sumout $end
$var wire 1 b Add3~38 $end
$var wire 1 c Add3~41_sumout $end
$var wire 1 d Add3~42 $end
$var wire 1 e Add3~45_sumout $end
$var wire 1 f Add3~46 $end
$var wire 1 g Add3~49_sumout $end
$var wire 1 h Equal4~1_combout $end
$var wire 1 i Add3~50 $end
$var wire 1 j Add3~21_sumout $end
$var wire 1 k Add3~22 $end
$var wire 1 l Add3~5_sumout $end
$var wire 1 m Add3~6 $end
$var wire 1 n Add3~9_sumout $end
$var wire 1 o Add3~10 $end
$var wire 1 p Add3~13_sumout $end
$var wire 1 q Add3~14 $end
$var wire 1 r Add3~17_sumout $end
$var wire 1 s Equal4~0_combout $end
$var wire 1 t Equal4~7_combout $end
$var wire 1 u Add3~114 $end
$var wire 1 v Add3~109_sumout $end
$var wire 1 w Add3~110 $end
$var wire 1 x Add3~105_sumout $end
$var wire 1 y Add3~106 $end
$var wire 1 z Add3~101_sumout $end
$var wire 1 { Add3~102 $end
$var wire 1 | Add3~97_sumout $end
$var wire 1 } Add3~98 $end
$var wire 1 ~ Add3~93_sumout $end
$var wire 1 !! Add3~94 $end
$var wire 1 "! Add3~89_sumout $end
$var wire 1 #! Add3~90 $end
$var wire 1 $! Add3~85_sumout $end
$var wire 1 %! Add3~86 $end
$var wire 1 &! Add3~81_sumout $end
$var wire 1 '! Add3~82 $end
$var wire 1 (! Add3~77_sumout $end
$var wire 1 )! Add3~78 $end
$var wire 1 *! Add3~25_sumout $end
$var wire 1 +! Add3~26 $end
$var wire 1 ,! Add3~117_sumout $end
$var wire 1 -! Add3~118 $end
$var wire 1 .! Add3~121_sumout $end
$var wire 1 /! Add3~122 $end
$var wire 1 0! Add3~53_sumout $end
$var wire 1 1! Add3~54 $end
$var wire 1 2! Add3~57_sumout $end
$var wire 1 3! Add3~58 $end
$var wire 1 4! Add3~61_sumout $end
$var wire 1 5! Add3~62 $end
$var wire 1 6! Add3~65_sumout $end
$var wire 1 7! Equal4~2_combout $end
$var wire 1 8! Equal4~5_combout $end
$var wire 1 9! Random_Seg[3]~2_combout $end
$var wire 1 :! p2_score[1]~0_combout $end
$var wire 1 ;! p2_score[0]~1_combout $end
$var wire 1 <! p1_score[1]~0_combout $end
$var wire 1 =! p1_score[0]~1_combout $end
$var wire 1 >! current_state[1]~1_combout $end
$var wire 1 ?! current_state[1]~3_combout $end
$var wire 1 @! current_state[0]~2_combout $end
$var wire 1 A! process_1~0_combout $end
$var wire 1 B! current_player[0]~0_combout $end
$var wire 1 C! Add3~1_sumout $end
$var wire 1 D! Random_Seg[3]~0_combout $end
$var wire 1 E! Random_Seg[3]~1_combout $end
$var wire 1 F! Random_Seg[3]~reg0_q $end
$var wire 1 G! p2_score [0] $end
$var wire 1 H! p2_score [1] $end
$var wire 1 I! p1_score [0] $end
$var wire 1 J! p1_score [1] $end
$var wire 1 K! current_number [0] $end
$var wire 1 L! current_number [1] $end
$var wire 1 M! current_number [2] $end
$var wire 1 N! current_number [3] $end
$var wire 1 O! current_state [31] $end
$var wire 1 P! current_state [30] $end
$var wire 1 Q! current_state [29] $end
$var wire 1 R! current_state [28] $end
$var wire 1 S! current_state [27] $end
$var wire 1 T! current_state [26] $end
$var wire 1 U! current_state [25] $end
$var wire 1 V! current_state [24] $end
$var wire 1 W! current_state [23] $end
$var wire 1 X! current_state [22] $end
$var wire 1 Y! current_state [21] $end
$var wire 1 Z! current_state [20] $end
$var wire 1 [! current_state [19] $end
$var wire 1 \! current_state [18] $end
$var wire 1 ]! current_state [17] $end
$var wire 1 ^! current_state [16] $end
$var wire 1 _! current_state [15] $end
$var wire 1 `! current_state [14] $end
$var wire 1 a! current_state [13] $end
$var wire 1 b! current_state [12] $end
$var wire 1 c! current_state [11] $end
$var wire 1 d! current_state [10] $end
$var wire 1 e! current_state [9] $end
$var wire 1 f! current_state [8] $end
$var wire 1 g! current_state [7] $end
$var wire 1 h! current_state [6] $end
$var wire 1 i! current_state [5] $end
$var wire 1 j! current_state [4] $end
$var wire 1 k! current_state [3] $end
$var wire 1 l! current_state [2] $end
$var wire 1 m! current_state [1] $end
$var wire 1 n! current_state [0] $end
$var wire 1 o! temp [0] $end
$var wire 1 p! temp [1] $end
$var wire 1 q! temp [2] $end
$var wire 1 r! temp [3] $end
$var wire 1 s! current_player [31] $end
$var wire 1 t! current_player [30] $end
$var wire 1 u! current_player [29] $end
$var wire 1 v! current_player [28] $end
$var wire 1 w! current_player [27] $end
$var wire 1 x! current_player [26] $end
$var wire 1 y! current_player [25] $end
$var wire 1 z! current_player [24] $end
$var wire 1 {! current_player [23] $end
$var wire 1 |! current_player [22] $end
$var wire 1 }! current_player [21] $end
$var wire 1 ~! current_player [20] $end
$var wire 1 !" current_player [19] $end
$var wire 1 "" current_player [18] $end
$var wire 1 #" current_player [17] $end
$var wire 1 $" current_player [16] $end
$var wire 1 %" current_player [15] $end
$var wire 1 &" current_player [14] $end
$var wire 1 '" current_player [13] $end
$var wire 1 (" current_player [12] $end
$var wire 1 )" current_player [11] $end
$var wire 1 *" current_player [10] $end
$var wire 1 +" current_player [9] $end
$var wire 1 ," current_player [8] $end
$var wire 1 -" current_player [7] $end
$var wire 1 ." current_player [6] $end
$var wire 1 /" current_player [5] $end
$var wire 1 0" current_player [4] $end
$var wire 1 1" current_player [3] $end
$var wire 1 2" current_player [2] $end
$var wire 1 3" current_player [1] $end
$var wire 1 4" current_player [0] $end
$upscope $end
$upscope $end
$enddefinitions $end
#0
$dumpvars
0!
0"
0#
0$
0%
1&
0*
0)
0(
0'
0,
0+
0.
0-
02
01
00
0/
x3
04
15
x6
17
18
19
0:
0;
0<
0=
1>
1?
0@
1A
1B
0C
0D
0E
0F
0G
0H
0I
1J
0K
1L
0M
0N
0O
1P
0Q
0R
1S
1T
1U
0V
0W
1X
0Y
0Z
0[
0\
0]
0^
0_
0`
0a
0b
0c
0d
0e
0f
0g
1h
0i
0j
0k
0l
0m
0n
0o
0p
0q
0r
1s
0t
0u
0v
0w
0x
0y
0z
0{
0|
0}
0~
0!!
0"!
0#!
0$!
0%!
0&!
0'!
0(!
0)!
0*!
0+!
0,!
0-!
0.!
0/!
00!
01!
02!
03!
04!
05!
06!
17!
18!
09!
0:!
0;!
0<!
0=!
0>!
0?!
0@!
0A!
0B!
1C!
1D!
0E!
0F!
0H!
0G!
0J!
0I!
0N!
0M!
0L!
0K!
0n!
0m!
zl!
zk!
zj!
zi!
zh!
zg!
zf!
ze!
zd!
zc!
zb!
za!
z`!
z_!
z^!
z]!
z\!
z[!
zZ!
zY!
zX!
zW!
zV!
zU!
zT!
zS!
zR!
zQ!
zP!
zO!
0r!
0q!
0p!
0o!
04"
03"
02"
01"
00"
0/"
0."
0-"
0,"
0+"
0*"
0)"
0("
0'"
0&"
0%"
0$"
0#"
0""
0!"
0~!
0}!
0|!
0{!
0z!
0y!
0x!
0w!
0v!
0u!
0t!
0s!
$end
#10000
1!
1;
1<
03
1r!
1q!
0A
0B
#20000
0!
0;
0<
13
#30000
1!
1;
1<
03
0r!
0?
1@
1A
1B
#40000
0!
0;
0<
13
#50000
1!
1;
1<
03
1r!
1p!
0q!
0A
0B
#60000
0!
0;
0<
13
#70000
1!
1;
1<
03
0r!
1?
1A
1B
#80000
0!
0;
0<
13
#90000
1!
1;
1<
03
1r!
1q!
0A
0B
#100000
0!
0;
0<
13
#110000
1!
1;
1<
03
0r!
1=
0?
0@
1A
1B
#120000
0!
0;
0<
13
#130000
1!
1;
1<
03
1r!
0p!
0q!
1o!
0A
0B
#140000
0!
0;
0<
13
#150000
1!
1;
1<
03
0r!
1?
1A
1B
#160000
0!
0;
0<
13
#170000
1!
1;
1<
03
1r!
1q!
0A
0B
#180000
0!
0;
0<
13
#190000
1!
1;
1<
03
0r!
0?
1@
1A
1B
#200000
0!
0;
0<
13
#210000
1#
1!
1D
1;
1<
03
19!
1E!
1@!
1r!
1p!
0q!
0A
0B
#220000
0!
0;
0<
13
#230000
1!
1;
1<
03
1n!
0r!
1N
1K
1N!
1A!
0D!
0=
0@
1B
1O
0L
1I
0J
1/
10
1*
0E!
0P
1Y
0@!
1B!
#240000
0#
0!
0D
0;
0<
13
09!
#250000
1!
1;
1<
03
13"
14"
0n!
0p!
0o!
0S
0Y
0A!
1D!
1?
1A
1t
#260000
0!
0;
0<
13
#270000
1!
1;
1<
03
1r!
1q!
0A
0B
#280000
0!
0;
0<
13
#290000
1%
1!
1C
1;
1<
03
19!
1E!
1@!
0r!
0?
1@
1A
1B
#300000
0!
0;
0<
13
#310000
1!
1;
1<
03
1n!
1r!
1p!
0q!
1F!
0N
0K
0N!
1M!
1F
1Y
0@!
1A!
0D!
0A
0B
0O
1J
12
0/
00
0*
1)
11
0B!
0E!
#320000
0!
0;
0<
13
#330000
0%
1!
0C
1;
1<
03
09!
03"
04"
0n!
0r!
1S
0Y
0A!
1D!
1?
1A
1B
0t
#340000
0!
0;
0<
13
#350000
1!
1;
1<
03
1r!
1q!
0A
0B
#360000
1#
0!
1D
0;
0<
13
19!
1E!
1@!
#370000
1!
1;
1<
03
1n!
0r!
0F!
1K
1N!
1Y
0@!
1A!
0D!
1=
0?
0@
1A
1B
1H
0I
0J
02
10
1*
1B!
0E!
#380000
0!
0;
0<
13
#390000
1!
1;
1<
03
13"
14"
0n!
1r!
0p!
0q!
1o!
0S
09!
0Y
1@!
0A!
1D!
0A
0B
1t
0@!
#400000
0#
0!
0D
0;
0<
13
#410000
1!
1;
1<
03
0r!
1?
1A
1B
#420000
1%
0!
1C
0;
0<
13
19!
1E!
1@!
#430000
1!
1;
1<
03
1n!
1r!
1q!
1F!
1N
0K
0N!
0M!
1L!
0F
1Y
0@!
1A!
0D!
0A
0B
1O
1J
12
1/
00
0*
0)
1(
01
0B!
0E!
#440000
0!
0;
0<
13
#450000
1!
1;
1<
03
03"
04"
0n!
0r!
1S
09!
0Y
1@!
0A!
1D!
0?
1@
1A
1B
0t
0@!
#460000
0%
0!
0C
0;
0<
13
#470000
1!
1;
1<
03
1r!
1p!
0q!
0A
0B
#480000
0!
0;
0<
13
#490000
1#
1!
1D
1;
1<
03
19!
1E!
1@!
0r!
0=
0@
1B
#500000
0!
0;
0<
13
#510000
1!
1;
1<
03
1n!
0p!
0o!
1K
1N!
1Y
0@!
1A!
0D!
1?
1A
1L
1I
0J
10
1*
1B!
0E!
#520000
0#
0!
0D
0;
0<
13
09!
#530000
1!
1;
1<
03
13"
14"
0n!
1r!
1q!
0S
0Y
0A!
1D!
0A
0B
1t
#540000
0!
0;
0<
13
#550000
1!
1;
1<
03
0r!
0?
1@
1A
1B
#560000
1%
0!
1C
0;
0<
13
19!
1E!
1@!
#570000
1!
1;
1<
03
1n!
1r!
1p!
0q!
0N
0K
0N!
1M!
1F
1Y
0@!
1A!
0D!
0A
0B
0O
0L
1J
0/
00
0*
1)
11
0B!
0E!
#580000
0!
0;
0<
13
#590000
0%
1!
0C
1;
1<
03
09!
03"
04"
0n!
0r!
1S
0Y
0A!
1D!
1?
1A
1B
0t
#600000
0!
0;
0<
13
#610000
1!
1;
1<
03
1r!
1q!
0A
0B
#620000
0!
0;
0<
13
#630000
1!
1;
1<
03
0r!
1=
0?
0@
1A
1B
#640000
0!
0;
0<
13
#650000
1!
1;
1<
03
1r!
0p!
0q!
1o!
0A
0B
#660000
0!
0;
0<
13
#670000
1!
1;
1<
03
0r!
1?
1A
1B
#680000
1#
0!
1D
0;
0<
13
19!
1E!
1@!
#690000
1!
1;
1<
03
1n!
1r!
1q!
1N
1N!
0F
1Y
0@!
1A!
0D!
0A
0B
1O
1G
0H
0I
0J
1/
1*
01
1B!
0E!
#700000
0!
0;
0<
13
#710000
1!
1;
1<
03
13"
14"
0n!
0r!
0S
09!
0Y
1@!
0A!
1D!
0?
1@
1A
1B
1t
0@!
#720000
0!
0;
0<
13
#730000
0#
1!
0D
1;
1<
03
1r!
1p!
0q!
0A
0B
#740000
0!
0;
0<
13
#750000
1%
1!
1C
1;
1<
03
19!
1E!
1@!
0r!
0=
0@
1B
#760000
0!
0;
0<
13
#770000
1!
1;
1<
03
1n!
0p!
0o!
1K
0N!
0M!
0L!
1K!
1Y
0@!
1A!
0D!
1?
1A
1J
0O
10
0*
0)
0(
1'
0B!
0E!
#780000
0!
0;
0<
13
#790000
1!
1;
1<
03
03"
04"
0n!
1r!
1q!
1S
09!
0Y
1@!
0A!
1D!
0A
0B
0t
0@!
#800000
0%
0!
0C
0;
0<
13
#810000
1!
1;
1<
03
0r!
0?
1@
1A
1B
#820000
0!
0;
0<
13
#830000
1#
1!
1D
1;
1<
03
19!
1E!
1@!
1r!
1p!
0q!
0A
0B
#840000
0!
0;
0<
13
#850000
1!
1;
1<
03
1n!
0r!
0F!
0N
1N!
1Y
0@!
1A!
0D!
1?
1A
1B
1O
1I
0J
02
0/
1*
1B!
0E!
#860000
0!
0;
0<
13
#870000
1!
1;
1<
03
13"
14"
0n!
1r!
1q!
0S
09!
0Y
1@!
0A!
1D!
0A
0B
1t
0@!
#880000
0#
0!
0D
0;
0<
13
#890000
1!
1;
1<
03
0r!
1=
0?
0@
1A
1B
#900000
0!
0;
0<
13
#910000
1%
1!
1C
1;
1<
03
19!
1E!
1@!
1r!
0p!
0q!
1o!
0A
0B
#920000
0!
0;
0<
13
#930000
1!
1;
1<
03
1n!
0r!
1N
0K
0N!
1M!
1Y
0@!
1A!
0D!
1?
1A
1B
0O
1J
1/
00
0*
1)
0B!
0E!
#940000
0!
0;
0<
13
#950000
1!
1;
1<
03
03"
04"
0n!
1r!
1q!
1S
09!
0Y
1@!
0A!
1D!
0A
0B
0t
0@!
#960000
0!
0;
0<
13
#970000
0%
1!
0C
1;
1<
03
0r!
0?
1@
1A
1B
#980000
0!
0;
0<
13
#990000
1!
1;
1<
03
1r!
1p!
0q!
0A
0B
#1000000
0!
0;
0<
13
#1010000
1#
1!
1D
1;
1<
03
19!
1E!
1@!
0r!
0=
0@
1B
#1020000
0!
0;
0<
13
#1030000
1!
1;
1<
03
1n!
0p!
0o!
1F!
1K
1N!
1Y
0@!
1A!
0D!
1?
1A
1H
0I
0J
12
10
1*
1B!
0E!
#1040000
0!
0;
0<
13
#1050000
1!
1;
1<
03
13"
14"
0n!
1r!
1q!
0S
09!
0Y
1@!
0A!
1D!
0A
0B
1t
0@!
#1060000
0!
0;
0<
13
#1070000
0#
1!
0D
1;
1<
03
0r!
0?
1@
1A
1B
#1080000
0!
0;
0<
13
#1090000
1%
1!
1C
1;
1<
03
19!
1E!
1@!
1r!
1p!
0q!
0A
0B
#1100000
0!
0;
0<
13
#1110000
1!
1;
1<
03
1n!
0r!
0F!
0N
0N!
0M!
1L!
1Y
0@!
1A!
0D!
1?
1A
1B
1L
1O
1J
02
0/
0*
0)
1(
0B!
0E!
#1120000
0!
0;
0<
13
#1130000
0%
1!
0C
1;
1<
03
09!
03"
04"
0n!
1r!
1q!
1S
0Y
0A!
1D!
0A
0B
0t
#1140000
0!
0;
0<
13
#1150000
1!
1;
1<
03
0r!
1=
0?
0@
1A
1B
#1160000
1#
0!
1D
0;
0<
13
19!
1E!
1@!
#1170000
1!
1;
1<
03
1n!
1r!
0p!
0q!
1o!
1F!
1N!
1F
1Y
0@!
1A!
0D!
0A
0B
0L
0G
0H
12
1*
11
1B!
0E!
#1180000
0!
0;
0<
13
#1190000
0#
1!
0D
1;
1<
03
09!
13"
14"
0n!
0r!
0S
0Y
0A!
1D!
1?
1A
1B
1t
#1200000
0!
0;
0<
13
#1210000
1!
1;
1<
03
1r!
1q!
0A
0B
#1220000
0!
0;
0<
13
#1230000
1%
1!
1C
1;
1<
03
19!
1E!
1@!
0r!
0?
1@
1A
1B
#1240000
0!
0;
0<
13
#1250000
1!
1;
1<
03
1n!
1r!
1p!
0q!
1N
0K
0L!
0K!
1Y
0@!
1A!
0D!
0A
0B
1I
0J
1/
00
0(
0'
0B!
0E!
#1260000
0!
0;
0<
13
#1270000
1!
1;
1<
03
03"
04"
0n!
0r!
1S
09!
0Y
1@!
0A!
1D!
0=
0@
1B
0t
0@!
#1280000
0%
0!
0C
0;
0<
13
#1290000
1!
1;
1<
03
0p!
0o!
1?
1A
#1300000
0!
0;
0<
13
#1310000
1!
1;
1<
03
1r!
1q!
0A
0B
#1320000
1#
0!
1D
0;
0<
13
19!
1E!
1@!
#1330000
1!
1;
1<
03
1n!
0r!
0F!
0N
0N!
1M!
1Y
0@!
1A!
0D!
0?
1@
1A
1B
1L
0O
1J
02
0/
0*
1)
1B!
0E!
1P
0Y
1@!
0B!
#1340000
0!
0;
0<
13
#1350000
0#
1!
0D
1;
1<
03
09!
1r!
1p!
0q!
0A
0B
#1360000
0!
0;
0<
13
#1370000
1"
1!
1M
1;
1<
03
0P
1Y
1<!
0@!
1B!
0r!
1?
1A
1B
#1380000
0!
0;
0<
13
#1390000
1!
1;
1<
03
13"
14"
0n!
1r!
1q!
1J!
0S
0Y
0A!
1D!
0A
0B
0<!
1=!
1,
1t
1<!
0=!
#1400000
0"
0!
0M
0;
0<
13
1P
#1410000
1!
1;
1<
03
0r!
1=
0?
0@
1A
1B
#1420000
1%
0!
1C
0;
0<
13
19!
1E!
1@!
#1430000
1!
1;
1<
03
1n!
1r!
0p!
0q!
1o!
1F!
1K
1N!
1A!
0D!
0A
0B
0L
1H
0I
0J
12
10
1*
0E!
0P
1Y
0@!
0B!
#1440000
0!
0;
0<
13
#1450000
1!
1;
1<
03
03"
04"
0n!
0r!
1S
09!
0Y
1@!
0A!
1D!
1?
1A
1B
0t
0@!
#1460000
0!
0;
0<
13
#1470000
1!
1;
1<
03
1r!
1q!
0A
0B
#1480000
0%
0!
0C
0;
0<
13
#1490000
1!
1;
1<
03
0r!
0?
1@
1A
1B
#1500000
0!
0;
0<
13
#1510000
1!
1;
1<
03
1r!
1p!
0q!
0A
0B
#1520000
1#
0!
1D
0;
0<
13
19!
1E!
1@!
#1530000
1!
1;
1<
03
1n!
0r!
0F!
1N
0N!
0M!
1L!
0F
1Y
0@!
1A!
0D!
0=
0@
1B
1L
1O
1J
02
1/
0*
0)
1(
01
1B!
0E!
#1540000
0!
0;
0<
13
#1550000
1!
1;
1<
03
13"
14"
0n!
0p!
0o!
0S
09!
0Y
1@!
0A!
1D!
1?
1A
1t
0@!
#1560000
0!
0;
0<
13
#1570000
1!
1;
1<
03
1r!
1q!
0A
0B
#1580000
0!
0;
0<
13
#1590000
1!
1;
1<
03
0r!
0?
1@
1A
1B
#1600000
0#
0!
0D
0;
0<
13
#1610000
1!
1;
1<
03
1r!
1p!
0q!
0A
0B
#1620000
0!
0;
0<
13
#1630000
1!
1;
1<
03
0r!
1?
1A
1B
#1640000
1%
0!
1C
0;
0<
13
19!
1E!
1@!
#1650000
1!
1;
1<
03
1n!
1r!
1q!
1F!
0N
1N!
1Y
0@!
1A!
0D!
0A
0B
0O
1I
0J
12
0/
1*
0B!
0E!
1P
0Y
1@!
1B!
#1660000
0!
0;
0<
13
#1670000
1!
1;
1<
03
0r!
1=
0?
0@
1A
1B
#1680000
0!
0;
0<
13
#1690000
1!
1;
1<
03
1r!
0p!
0q!
1o!
0A
0B
#1700000
0!
0;
0<
13
#1710000
1!
1;
1<
03
0r!
1?
1A
1B
#1720000
0%
0!
0C
0;
0<
13
09!
#1730000
1!
1;
1<
03
1r!
1q!
0A
0B
#1740000
0!
0;
0<
13
#1750000
1!
1;
1<
03
0r!
0?
1@
1A
1B
#1760000
1"
1#
0!
1M
1D
0;
0<
13
0P
1Y
0<!
1=!
0@!
0B!
#1770000
1!
1;
1<
03
03"
04"
0n!
1r!
1p!
0q!
1I!
0J!
1S
19!
0Y
0A!
1D!
0A
0B
1<!
1+
0,
0t
1@!
0<!
1E!
#1780000
0!
0;
0<
13
#1790000
1!
1;
1<
03
1n!
0r!
0F!
1N
0N!
1M!
1Y
0@!
1A!
0D!
0=
0@
1B
0L
1O
1J
02
1/
0*
1)
1B!
0E!
#1800000
0"
0!
0M
0;
0<
13
#1810000
1!
1;
1<
03
13"
14"
0n!
0p!
0o!
0S
09!
0Y
1@!
0A!
1D!
1?
1A
1t
0@!
#1820000
0!
0;
0<
13
#1830000
1!
1;
1<
03
1r!
1q!
0A
0B
#1840000
0#
0!
0D
0;
0<
13
#1850000
1!
1;
1<
03
0r!
0?
1@
1A
1B
#1860000
0!
0;
0<
13
#1870000
1!
1;
1<
03
1r!
1p!
0q!
0A
0B
#1880000
1$
0!
1E
0;
0<
13
#1890000
1!
1;
1<
03
0r!
1?
1A
1B
#1900000
0!
0;
0<
13
#1910000
1!
1;
1<
03
1r!
1q!
0A
0B
#1920000
0!
0;
0<
13
#1930000
1!
1;
1<
03
0r!
1=
0?
0@
1A
1B
#1940000
0!
0;
0<
13
#1950000
1!
1;
1<
03
1r!
0p!
0q!
1o!
0A
0B
#1960000
0!
0;
0<
13
#1970000
1!
1;
1<
03
0r!
1?
1A
1B
#1980000
0!
0;
0<
13
#1990000
1!
1;
1<
03
1r!
1q!
0A
0B
#2000000
0!
0;
0<
13
#2010000
1!
1;
1<
03
0r!
0?
1@
1A
1B
#2020000
0!
0;
0<
13
#2030000
1!
1;
1<
03
1r!
1p!
0q!
0A
0B
#2040000
0$
0!
0E
0;
0<
13
#2050000
1!
1;
1<
03
0r!
0=
0@
1B
#2060000
0!
0;
0<
13
#2070000
1!
1;
1<
03
0p!
0o!
1?
1A
#2080000
0!
0;
0<
13
#2090000
1!
1;
1<
03
1r!
1q!
0A
0B
#2100000
0!
0;
0<
13
#2110000
1!
1;
1<
03
0r!
0?
1@
1A
1B
#2120000
1%
0!
1C
0;
0<
13
19!
1E!
1@!
#2130000
1!
1;
1<
03
1n!
1r!
1p!
0q!
1F!
0N
0K
1N!
1F
1Y
0@!
1A!
0D!
0A
0B
0O
1G
0H
0I
0J
12
0/
00
1*
11
0B!
0E!
#2140000
0!
0;
0<
13
#2150000
1!
1;
1<
03
03"
04"
0n!
0r!
1S
09!
0Y
1@!
0A!
1D!
1?
1A
1B
0t
0@!
#2160000
1#
0%
0!
1D
0C
0;
0<
13
19!
1E!
1@!
#2170000
1!
1;
1<
03
1n!
1r!
1q!
1K
0N!
0M!
0L!
1K!
0F
1Y
0@!
1A!
0D!
0A
0B
1J
1O
10
0*
0)
0(
1'
01
1B!
0E!
#2180000
0!
0;
0<
13
#2190000
1!
1;
1<
03
13"
14"
0n!
0r!
0S
09!
0Y
1@!
0A!
1D!
1=
0?
0@
1A
1B
1t
0@!
#2200000
0#
1%
0!
0D
1C
0;
0<
13
19!
1E!
1@!
#2210000
1!
1;
1<
03
1n!
1r!
0p!
0q!
1o!
1N!
1F
1Y
0@!
1A!
0D!
0A
0B
1I
0J
1*
11
0B!
0E!
#2220000
0!
0;
0<
13
#2230000
1!
1;
1<
03
03"
04"
0n!
0r!
1S
09!
0Y
1@!
0A!
1D!
1?
1A
1B
0t
0@!
#2240000
1#
0%
0!
1D
0C
0;
0<
13
19!
1E!
1@!
#2250000
1!
1;
1<
03
1n!
1r!
1q!
1N
0K
0N!
1M!
0F
1Y
0@!
1A!
0D!
0A
0B
0O
1J
1/
00
0*
1)
01
1B!
0E!
#2260000
0!
0;
0<
13
#2270000
1!
1;
1<
03
13"
14"
0n!
0r!
0S
09!
0Y
1@!
0A!
1D!
0?
1@
1A
1B
1t
0@!
#2280000
0#
1%
0!
0D
1C
0;
0<
13
19!
1E!
1@!
#2290000
1!
1;
1<
03
1n!
1r!
1p!
0q!
1N!
1F
1Y
0@!
1A!
0D!
0A
0B
1H
0I
0J
1L
1*
11
0B!
0E!
1P
0Y
1@!
1B!
#2300000
0!
0;
0<
13
#2310000
1!
1;
1<
03
0r!
0=
0@
1B
#2320000
0%
0!
0C
0;
0<
13
09!
#2330000
1!
1;
1<
03
0p!
0o!
1?
1A
#2340000
0!
0;
0<
13
#2350000
1!
1;
1<
03
1r!
1q!
0A
0B
#2360000
0!
0;
0<
13
#2370000
1!
1;
1<
03
0r!
0?
1@
1A
1B
#2380000
0!
0;
0<
13
#2390000
1!
1;
1<
03
1r!
1p!
0q!
0A
0B
#2400000
1"
0!
1M
0;
0<
13
0P
1Y
1<!
0@!
0B!
#2410000
1!
1;
1<
03
03"
04"
0n!
0r!
1J!
1S
0Y
0A!
1D!
1?
1A
1B
0<!
0=!
1>!
1,
0t
1<!
1=!
1?!
#2420000
0!
0;
0<
13
#2430000
1!
1;
1<
03
1m!
1r!
1q!
0X
0D!
0A
0B
#2440000
0!
0;
0<
13
#2450000
1!
1;
1<
03
0r!
1=
0?
0@
1A
1B
#2460000
0!
0;
0<
13
#2470000
1!
1;
1<
03
1r!
0p!
0q!
1o!
0A
0B
#2480000
0!
0;
0<
13
#2490000
1!
1;
1<
03
0r!
1?
1A
1B
#2500000
0!
0;
0<
13
#2510000
1!
1;
1<
03
1r!
1q!
0A
0B
#2520000
0"
0!
0M
0;
0<
13
1P
#2530000
1!
1;
1<
03
0r!
0?
1@
1A
1B
#2540000
0!
0;
0<
13
#2550000
1!
1;
1<
03
1r!
1p!
0q!
0A
0B
#2560000
0!
0;
0<
13
#2570000
1!
1;
1<
03
0r!
0=
0@
1B
#2580000
0!
0;
0<
13
#2590000
1!
1;
1<
03
0p!
0o!
1?
1A
#2600000
0!
0;
0<
13
#2610000
1!
1;
1<
03
1r!
1q!
0A
0B
#2620000
0!
0;
0<
13
#2630000
1!
1;
1<
03
0r!
0?
1@
1A
1B
#2640000
0!
0;
0<
13
#2650000
1!
1;
1<
03
1r!
1p!
0q!
0A
0B
#2660000
0!
0;
0<
13
#2670000
1!
1;
1<
03
0r!
1?
1A
1B
#2680000
0!
0;
0<
13
#2690000
1!
1;
1<
03
1r!
1q!
0A
0B
#2700000
0!
0;
0<
13
#2710000
1!
1;
1<
03
0r!
1=
0?
0@
1A
1B
#2720000
0!
0;
0<
13
#2730000
1!
1;
1<
03
1r!
0p!
0q!
1o!
0A
0B
#2740000
0!
0;
0<
13
#2750000
1!
1;
1<
03
0r!
1?
1A
1B
#2760000
0!
0;
0<
13
#2770000
1!
1;
1<
03
1r!
1q!
0A
0B
#2780000
0!
0;
0<
13
#2790000
1!
1;
1<
03
0r!
0?
1@
1A
1B
#2800000
1%
0!
1C
0;
0<
13
#2810000
1!
1;
1<
03
1r!
1p!
0q!
0A
0B
#2820000
0!
0;
0<
13
#2830000
1!
1;
1<
03
0r!
0=
0@
1B
#2840000
0%
0!
0C
0;
0<
13
#2850000
1!
1;
1<
03
0p!
0o!
1?
1A
#2860000
0!
0;
0<
13
#2870000
1!
1;
1<
03
1r!
1q!
0A
0B
#2880000
1#
0!
1D
0;
0<
13
19!
#2890000
1!
1;
1<
03
0r!
0?
1@
1A
1B
#2900000
0!
0;
0<
13
#2910000
1!
1;
1<
03
1r!
1p!
0q!
0A
0B
#2920000
0!
0;
0<
13
#2930000
1!
1;
1<
03
0r!
1?
1A
1B
#2940000
0!
0;
0<
13
