simulation/qsim/Poker.msim.vcd
$comment
	File created using the following command:
		vcd file Poker.msim.vcd -direction
$end
$date
	Tue Jun 15 21:39:38 2021
$end
$version
	ModelSim Version 10.1e
$end
$timescale
	1ps
$end
$scope module Poker_vlg_vec_tst $end
$var reg 1 ! CLOCK $end
$var reg 1 " P1_Race $end
$var reg 1 # P1_Roll $end
$var reg 1 $ P2_Race $end
$var reg 1 % P2_Roll $end
$var reg 1 & Switch $end
$var wire 1 ' a $end
$var wire 1 ( b $end
$var wire 1 ) Buzzer $end
$var wire 1 * c $end
$var wire 1 + Current_Seg [3] $end
$var wire 1 , Current_Seg [2] $end
$var wire 1 - Current_Seg [1] $end
$var wire 1 . Current_Seg [0] $end
$var wire 1 / d $end
$var wire 1 0 DE0 $end
$var wire 1 1 DE1 $end
$var wire 1 2 DE2 $end
$var wire 1 3 e $end
$var wire 1 4 f $end
$var wire 1 5 g $end
$var wire 1 6 Gcol [7] $end
$var wire 1 7 Gcol [6] $end
$var wire 1 8 Gcol [5] $end
$var wire 1 9 Gcol [4] $end
$var wire 1 : Gcol [3] $end
$var wire 1 ; Gcol [2] $end
$var wire 1 < Gcol [1] $end
$var wire 1 = Gcol [0] $end
$var wire 1 > P1Score_Seg [1] $end
$var wire 1 ? P1Score_Seg [0] $end
$var wire 1 @ P2Score_Seg [1] $end
$var wire 1 A P2Score_Seg [0] $end
$var wire 1 B Random_Seg [3] $end
$var wire 1 C Random_Seg [2] $end
$var wire 1 D Random_Seg [1] $end
$var wire 1 E Random_Seg [0] $end
$var wire 1 F Rcol [7] $end
$var wire 1 G Rcol [6] $end
$var wire 1 H Rcol [5] $end
$var wire 1 I Rcol [4] $end
$var wire 1 J Rcol [3] $end
$var wire 1 K Rcol [2] $end
$var wire 1 L Rcol [1] $end
$var wire 1 M Rcol [0] $end
$var wire 1 N row [7] $end
$var wire 1 O row [6] $end
$var wire 1 P row [5] $end
$var wire 1 Q row [4] $end
$var wire 1 R row [3] $end
$var wire 1 S row [2] $end
$var wire 1 T row [1] $end
$var wire 1 U row [0] $end
$var wire 1 V sampler $end
$scope module i1 $end
$var wire 1 W gnd $end
$var wire 1 X vcc $end
$var wire 1 Y unknown $end
$var tri1 1 Z devclrn $end
$var tri1 1 [ devpor $end
$var tri1 1 \ devoe $end
$var wire 1 ] ~QUARTUS_CREATED_GND~I_combout $end
$var wire 1 ^ CLOCK~input_o $end
$var wire 1 _ CLOCK~inputCLKENA0_outclk $end
$var wire 1 ` inst1|inst2|Mux1~0_combout $end
$var wire 1 a inst1|inst2|Mux2~0_combout $end
$var wire 1 b inst1|inst2|Mux0~0_combout $end
$var wire 1 c inst1|inst2|Mux37~0_combout $end
$var wire 1 d inst|temp~2_combout $end
$var wire 1 e Switch~input_o $end
$var wire 1 f inst|temp~0_combout $end
$var wire 1 g inst|temp~1_combout $end
$var wire 1 h inst|temp~3_combout $end
$var wire 1 i P1_Roll~input_o $end
$var wire 1 j P1_Race~input_o $end
$var wire 1 k P2_Race~input_o $end
$var wire 1 l inst|current_number~3_combout $end
$var wire 1 m inst|Add3~1_sumout $end
$var wire 1 n inst|Add3~2 $end
$var wire 1 o inst|Add3~89_sumout $end
$var wire 1 p inst|process_1~2_combout $end
$var wire 1 q inst|p2_score~0_combout $end
$var wire 1 r inst|p2_score[0]~1_combout $end
$var wire 1 s inst|p2_score~2_combout $end
$var wire 1 t inst|p1_score~0_combout $end
$var wire 1 u inst|p1_score[0]~1_combout $end
$var wire 1 v inst|p1_score~2_combout $end
$var wire 1 w inst|process_1~3_combout $end
$var wire 1 x inst|current_state[1]~2_combout $end
$var wire 1 y inst|current_player[20]~1_combout $end
$var wire 1 z inst|Add3~90 $end
$var wire 1 { inst|Add3~93_sumout $end
$var wire 1 | inst|Add3~94 $end
$var wire 1 } inst|Add3~97_sumout $end
$var wire 1 ~ inst|Add3~98 $end
$var wire 1 !! inst|Add3~101_sumout $end
$var wire 1 "! inst|Add3~102 $end
$var wire 1 #! inst|Add3~17_sumout $end
$var wire 1 $! inst|Add3~18 $end
$var wire 1 %! inst|Add3~105_sumout $end
$var wire 1 &! inst|Add3~106 $end
$var wire 1 '! inst|Add3~109_sumout $end
$var wire 1 (! inst|Add3~110 $end
$var wire 1 )! inst|Add3~113_sumout $end
$var wire 1 *! inst|Add3~114 $end
$var wire 1 +! inst|Add3~117_sumout $end
$var wire 1 ,! inst|Add3~118 $end
$var wire 1 -! inst|Add3~33_sumout $end
$var wire 1 .! inst|Add3~34 $end
$var wire 1 /! inst|Add3~37_sumout $end
$var wire 1 0! inst|Add3~38 $end
$var wire 1 1! inst|Add3~41_sumout $end
$var wire 1 2! inst|Add3~42 $end
$var wire 1 3! inst|Add3~45_sumout $end
$var wire 1 4! inst|Add3~46 $end
$var wire 1 5! inst|Add3~49_sumout $end
$var wire 1 6! inst|Add3~50 $end
$var wire 1 7! inst|Add3~5_sumout $end
$var wire 1 8! inst|Add3~6 $end
$var wire 1 9! inst|Add3~9_sumout $end
$var wire 1 :! inst|Add3~10 $end
$var wire 1 ;! inst|Add3~85_sumout $end
$var wire 1 <! inst|Add3~86 $end
$var wire 1 =! inst|Add3~81_sumout $end
$var wire 1 >! inst|Add3~82 $end
$var wire 1 ?! inst|Add3~77_sumout $end
$var wire 1 @! inst|Add3~78 $end
$var wire 1 A! inst|Add3~25_sumout $end
$var wire 1 B! inst|Add3~26 $end
$var wire 1 C! inst|Add3~21_sumout $end
$var wire 1 D! inst|Add3~22 $end
$var wire 1 E! inst|Add3~13_sumout $end
$var wire 1 F! inst|Equal4~0_combout $end
$var wire 1 G! inst|Add3~14 $end
$var wire 1 H! inst|Add3~121_sumout $end
$var wire 1 I! inst|Add3~122 $end
$var wire 1 J! inst|Add3~53_sumout $end
$var wire 1 K! inst|Add3~54 $end
$var wire 1 L! inst|Add3~57_sumout $end
$var wire 1 M! inst|Add3~58 $end
$var wire 1 N! inst|Add3~61_sumout $end
$var wire 1 O! inst|Add3~62 $end
$var wire 1 P! inst|Add3~65_sumout $end
$var wire 1 Q! inst|Add3~66 $end
$var wire 1 R! inst|Add3~69_sumout $end
$var wire 1 S! inst|Add3~70 $end
$var wire 1 T! inst|Add3~73_sumout $end
$var wire 1 U! inst|Equal4~2_combout $end
$var wire 1 V! inst|Equal4~4_combout $end
$var wire 1 W! inst|Add3~74 $end
$var wire 1 X! inst|Add3~29_sumout $end
$var wire 1 Y! inst|Equal4~1_combout $end
$var wire 1 Z! inst|Equal4~3_combout $end
$var wire 1 [! inst|Equal4~7_combout $end
$var wire 1 \! inst|Equal4~6_combout $end
$var wire 1 ]! P2_Roll~input_o $end
$var wire 1 ^! inst|process_1~1_combout $end
$var wire 1 _! inst|Equal4~5_combout $end
$var wire 1 `! inst|current_number[3]~2_combout $end
$var wire 1 a! inst|current_number~5_combout $end
$var wire 1 b! inst|current_number~4_combout $end
$var wire 1 c! inst|Random_Seg[3]~0_combout $end
$var wire 1 d! inst|Equal8~1_combout $end
$var wire 1 e! inst|current_state[10]~0_combout $end
$var wire 1 f! inst|current_state[0]~1_combout $end
$var wire 1 g! inst|process_1~0_combout $end
$var wire 1 h! inst|current_number[3]~6_combout $end
$var wire 1 i! inst|Equal8~0_combout $end
$var wire 1 j! inst|Equal8~2_combout $end
$var wire 1 k! inst|current_player[0]~0_combout $end
$var wire 1 l! inst|current_number[3]~0_combout $end
$var wire 1 m! inst|current_number~1_combout $end
$var wire 1 n! inst1|inst2|Mux11~0_combout $end
$var wire 1 o! inst1|inst2|Mux8~0_combout $end
$var wire 1 p! inst1|inst|Mux0~0_combout $end
$var wire 1 q! inst1|inst|decimal~q $end
$var wire 1 r! inst1|inst1|Mux0~0_combout $end
$var wire 1 s! inst1|inst1|decimal~q $end
$var wire 1 t! inst1|inst2|Mux27~2_combout $end
$var wire 1 u! inst1|inst1|Mux2~0_combout $end
$var wire 1 v! inst1|inst1|Mux3~0_combout $end
$var wire 1 w! inst1|inst1|Mux1~0_combout $end
$var wire 1 x! inst1|inst|Mux3~0_combout $end
$var wire 1 y! inst1|inst|Mux2~0_combout $end
$var wire 1 z! inst1|inst|Mux1~0_combout $end
$var wire 1 {! inst1|inst2|Mux27~0_combout $end
$var wire 1 |! inst1|inst2|Mux27~1_combout $end
$var wire 1 }! inst1|inst2|Mux27~3_combout $end
$var wire 1 ~! inst1|inst2|Mux32~0_combout $end
$var wire 1 !" inst1|inst2|Mux32~1_combout $end
$var wire 1 "" inst1|inst2|Mux24~0_combout $end
$var wire 1 #" inst1|inst2|Mux24~1_combout $end
$var wire 1 $" inst1|inst2|Mux24~2_combout $end
$var wire 1 %" inst1|inst2|Mux21~1_combout $end
$var wire 1 &" inst1|inst2|Mux21~2_combout $end
$var wire 1 '" inst1|inst1|digit[0]~DUPLICATE_q $end
$var wire 1 (" inst1|inst2|Mux21~0_combout $end
$var wire 1 )" inst1|inst2|Mux21~3_combout $end
$var wire 1 *" inst1|inst2|Mux21~4_combout $end
$var wire 1 +" inst1|inst2|Mux18~0_combout $end
$var wire 1 ," inst1|inst2|Mux18~1_combout $end
$var wire 1 -" inst1|inst2|Mux18~2_combout $end
$var wire 1 ." inst1|inst2|Mux5~2_combout $end
$var wire 1 /" inst1|inst2|Mux5~1_combout $end
$var wire 1 0" inst1|inst2|Mux5~0_combout $end
$var wire 1 1" inst1|inst2|Mux14~1_combout $end
$var wire 1 2" inst1|inst2|Mux14~2_combout $end
$var wire 1 3" inst1|inst2|Mux14~3_combout $end
$var wire 1 4" inst1|inst2|Mux14~0_combout $end
$var wire 1 5" inst1|inst2|Mux17~0_combout $end
$var wire 1 6" inst1|inst2|Mux17~1_combout $end
$var wire 1 7" inst1|inst2|Mux17~2_combout $end
$var wire 1 8" inst4|Add1~5_sumout $end
$var wire 1 9" inst4|Add1~22 $end
$var wire 1 :" inst4|Add1~53_sumout $end
$var wire 1 ;" inst4|row_counter[1]~2_combout $end
$var wire 1 <" inst4|row_counter[1]~DUPLICATE_q $end
$var wire 1 =" inst4|row_counter[0]~1_combout $end
$var wire 1 >" inst4|Equal4~3_combout $end
$var wire 1 ?" inst4|Equal4~1_combout $end
$var wire 1 @" inst4|Equal4~2_combout $end
$var wire 1 A" inst4|Equal4~4_combout $end
$var wire 1 B" inst4|LessThan0~0_combout $end
$var wire 1 C" inst4|LessThan0~1_combout $end
$var wire 1 D" inst4|frame_counter[30]~0_combout $end
$var wire 1 E" inst4|Add1~54 $end
$var wire 1 F" inst4|Add1~49_sumout $end
$var wire 1 G" inst4|Add1~50 $end
$var wire 1 H" inst4|Add1~45_sumout $end
$var wire 1 I" inst4|Add1~46 $end
$var wire 1 J" inst4|Add1~41_sumout $end
$var wire 1 K" inst4|Add1~42 $end
$var wire 1 L" inst4|Add1~117_sumout $end
$var wire 1 M" inst4|Add1~118 $end
$var wire 1 N" inst4|Add1~37_sumout $end
$var wire 1 O" inst4|Add1~38 $end
$var wire 1 P" inst4|Add1~33_sumout $end
$var wire 1 Q" inst4|Add1~34 $end
$var wire 1 R" inst4|Add1~77_sumout $end
$var wire 1 S" inst4|Add1~78 $end
$var wire 1 T" inst4|Add1~93_sumout $end
$var wire 1 U" inst4|frame_counter[15]~DUPLICATE_q $end
$var wire 1 V" inst4|Add1~94 $end
$var wire 1 W" inst4|Add1~121_sumout $end
$var wire 1 X" inst4|Add1~122 $end
$var wire 1 Y" inst4|Add1~125_sumout $end
$var wire 1 Z" inst4|Add1~126 $end
$var wire 1 [" inst4|Add1~57_sumout $end
$var wire 1 \" inst4|Add1~58 $end
$var wire 1 ]" inst4|Add1~61_sumout $end
$var wire 1 ^" inst4|Add1~62 $end
$var wire 1 _" inst4|Add1~65_sumout $end
$var wire 1 `" inst4|Add1~66 $end
$var wire 1 a" inst4|Add1~69_sumout $end
$var wire 1 b" inst4|Add1~70 $end
$var wire 1 c" inst4|Add1~73_sumout $end
$var wire 1 d" inst4|Add1~74 $end
$var wire 1 e" inst4|Add1~113_sumout $end
$var wire 1 f" inst4|Add1~114 $end
$var wire 1 g" inst4|Add1~109_sumout $end
$var wire 1 h" inst4|Add1~110 $end
$var wire 1 i" inst4|Add1~105_sumout $end
$var wire 1 j" inst4|Add1~106 $end
$var wire 1 k" inst4|Add1~101_sumout $end
$var wire 1 l" inst4|Add1~102 $end
$var wire 1 m" inst4|Add1~97_sumout $end
$var wire 1 n" inst4|Add1~98 $end
$var wire 1 o" inst4|Add1~89_sumout $end
$var wire 1 p" inst4|Add1~90 $end
$var wire 1 q" inst4|Add1~85_sumout $end
$var wire 1 r" inst4|Add1~86 $end
$var wire 1 s" inst4|Add1~81_sumout $end
$var wire 1 t" inst4|Add1~82 $end
$var wire 1 u" inst4|Add1~17_sumout $end
$var wire 1 v" inst4|win_proc~1_combout $end
$var wire 1 w" inst4|win_proc~0_combout $end
$var wire 1 x" inst4|red2win~0_combout $end
$var wire 1 y" inst4|green1win~3_combout $end
$var wire 1 z" inst4|green1win~2_combout $end
$var wire 1 {" inst4|green1win~1_combout $end
$var wire 1 |" inst4|red2win~q $end
$var wire 1 }" inst4|green1win~0_combout $end
$var wire 1 ~" inst4|green1win~q $end
$var wire 1 !# inst4|do_win~0_combout $end
$var wire 1 "# inst4|do_win~q $end
$var wire 1 ## inst4|row_counter[2]~0_combout $end
$var wire 1 $# inst4|row_counter[0]~DUPLICATE_q $end
$var wire 1 %# inst4|Mux1~0_combout $end
$var wire 1 &# inst4|Add1~6 $end
$var wire 1 '# inst4|Add1~9_sumout $end
$var wire 1 (# inst4|Add1~10 $end
$var wire 1 )# inst4|Add1~1_sumout $end
$var wire 1 *# inst4|Add1~2 $end
$var wire 1 +# inst4|Add1~13_sumout $end
$var wire 1 ,# inst4|Add1~14 $end
$var wire 1 -# inst4|Add1~29_sumout $end
$var wire 1 .# inst4|Add1~30 $end
$var wire 1 /# inst4|Add1~25_sumout $end
$var wire 1 0# inst4|Add1~26 $end
$var wire 1 1# inst4|Add1~21_sumout $end
$var wire 1 2# inst4|Equal4~0_combout $end
$var wire 1 3# inst4|Equal13~0_combout $end
$var wire 1 4# inst4|frame_counter[2]~DUPLICATE_q $end
$var wire 1 5# inst4|Selector7~0_combout $end
$var wire 1 6# inst4|Gcol~1_combout $end
$var wire 1 7# inst4|Gcol~0_combout $end
$var wire 1 8# inst4|Selector3~0_combout $end
$var wire 1 9# inst4|Equal11~0_combout $end
$var wire 1 :# inst4|Equal12~0_combout $end
$var wire 1 ;# inst4|Selector7~1_combout $end
$var wire 1 <# inst4|Selector7~2_combout $end
$var wire 1 =# inst4|Equal4~5_combout $end
$var wire 1 ># inst4|Equal13~1_combout $end
$var wire 1 ?# inst4|Selector6~0_combout $end
$var wire 1 @# inst4|Selector2~0_combout $end
$var wire 1 A# inst4|Selector6~1_combout $end
$var wire 1 B# inst4|Selector6~2_combout $end
$var wire 1 C# inst4|Equal14~0_combout $end
$var wire 1 D# inst4|Equal6~0_combout $end
$var wire 1 E# inst4|Selector13~0_combout $end
$var wire 1 F# inst4|Selector5~0_combout $end
$var wire 1 G# inst4|Selector5~1_combout $end
$var wire 1 H# inst4|Selector0~0_combout $end
$var wire 1 I# inst4|Selector5~2_combout $end
$var wire 1 J# inst4|Selector5~3_combout $end
$var wire 1 K# inst4|Selector4~0_combout $end
$var wire 1 L# inst4|Selector12~0_combout $end
$var wire 1 M# inst4|Selector4~2_combout $end
$var wire 1 N# inst4|Equal7~0_combout $end
$var wire 1 O# inst4|Selector4~1_combout $end
$var wire 1 P# inst4|Selector7~3_combout $end
$var wire 1 Q# inst4|Selector4~3_combout $end
$var wire 1 R# inst4|Selector3~2_combout $end
$var wire 1 S# inst4|Selector3~1_combout $end
$var wire 1 T# inst4|Selector3~3_combout $end
$var wire 1 U# inst4|Selector3~4_combout $end
$var wire 1 V# inst4|Selector2~1_combout $end
$var wire 1 W# inst4|Selector2~2_combout $end
$var wire 1 X# inst4|Selector2~3_combout $end
$var wire 1 Y# inst4|Selector2~4_combout $end
$var wire 1 Z# inst4|Selector1~1_combout $end
$var wire 1 [# inst4|Selector1~2_combout $end
$var wire 1 \# inst4|Equal4~6_combout $end
$var wire 1 ]# inst4|Selector1~0_combout $end
$var wire 1 ^# inst4|Gcol~2_combout $end
$var wire 1 _# inst4|Selector1~3_combout $end
$var wire 1 `# inst4|Selector0~1_combout $end
$var wire 1 a# inst4|Selector0~2_combout $end
$var wire 1 b# inst4|Selector0~3_combout $end
$var wire 1 c# inst4|Selector0~4_combout $end
$var wire 1 d# inst4|Rcol~0_combout $end
$var wire 1 e# inst4|Rcol~2_combout $end
$var wire 1 f# inst4|Selector15~0_combout $end
$var wire 1 g# inst4|Rcol~1_combout $end
$var wire 1 h# inst4|Selector15~1_combout $end
$var wire 1 i# inst4|Selector14~0_combout $end
$var wire 1 j# inst4|Selector14~1_combout $end
$var wire 1 k# inst4|Selector13~1_combout $end
$var wire 1 l# inst4|Selector13~2_combout $end
$var wire 1 m# inst4|Selector13~3_combout $end
$var wire 1 n# inst4|Selector12~1_combout $end
$var wire 1 o# inst4|Selector12~2_combout $end
$var wire 1 p# inst4|Selector12~3_combout $end
$var wire 1 q# inst4|Selector11~0_combout $end
$var wire 1 r# inst4|Selector11~2_combout $end
$var wire 1 s# inst4|Selector11~1_combout $end
$var wire 1 t# inst4|Selector11~3_combout $end
$var wire 1 u# inst4|Selector10~0_combout $end
$var wire 1 v# inst4|Selector10~1_combout $end
$var wire 1 w# inst4|Selector13~4_combout $end
$var wire 1 x# inst4|Selector10~2_combout $end
$var wire 1 y# inst4|Selector9~2_combout $end
$var wire 1 z# inst4|Selector9~0_combout $end
$var wire 1 {# inst4|Selector9~1_combout $end
$var wire 1 |# inst4|Selector9~3_combout $end
$var wire 1 }# inst4|Selector8~0_combout $end
$var wire 1 ~# inst4|Selector8~1_combout $end
$var wire 1 !$ inst4|Selector8~2_combout $end
$var wire 1 "$ inst4|Mux2~0_combout $end
$var wire 1 #$ inst4|Decoder0~0_combout $end
$var wire 1 $$ inst4|Decoder0~1_combout $end
$var wire 1 %$ inst4|Decoder0~2_combout $end
$var wire 1 &$ inst4|Decoder0~3_combout $end
$var wire 1 '$ inst4|Decoder0~4_combout $end
$var wire 1 ($ inst4|Decoder0~5_combout $end
$var wire 1 )$ inst|temp [0] $end
$var wire 1 *$ inst|temp [1] $end
$var wire 1 +$ inst|temp [2] $end
$var wire 1 ,$ inst|temp [3] $end
$var wire 1 -$ inst|current_number [0] $end
$var wire 1 .$ inst|current_number [1] $end
$var wire 1 /$ inst|current_number [2] $end
$var wire 1 0$ inst|current_number [3] $end
$var wire 1 1$ inst4|frame_counter [31] $end
$var wire 1 2$ inst4|frame_counter [30] $end
$var wire 1 3$ inst4|frame_counter [29] $end
$var wire 1 4$ inst4|frame_counter [28] $end
$var wire 1 5$ inst4|frame_counter [27] $end
$var wire 1 6$ inst4|frame_counter [26] $end
$var wire 1 7$ inst4|frame_counter [25] $end
$var wire 1 8$ inst4|frame_counter [24] $end
$var wire 1 9$ inst4|frame_counter [23] $end
$var wire 1 :$ inst4|frame_counter [22] $end
$var wire 1 ;$ inst4|frame_counter [21] $end
$var wire 1 <$ inst4|frame_counter [20] $end
$var wire 1 =$ inst4|frame_counter [19] $end
$var wire 1 >$ inst4|frame_counter [18] $end
$var wire 1 ?$ inst4|frame_counter [17] $end
$var wire 1 @$ inst4|frame_counter [16] $end
$var wire 1 A$ inst4|frame_counter [15] $end
$var wire 1 B$ inst4|frame_counter [14] $end
$var wire 1 C$ inst4|frame_counter [13] $end
$var wire 1 D$ inst4|frame_counter [12] $end
$var wire 1 E$ inst4|frame_counter [11] $end
$var wire 1 F$ inst4|frame_counter [10] $end
$var wire 1 G$ inst4|frame_counter [9] $end
$var wire 1 H$ inst4|frame_counter [8] $end
$var wire 1 I$ inst4|frame_counter [7] $end
$var wire 1 J$ inst4|frame_counter [6] $end
$var wire 1 K$ inst4|frame_counter [5] $end
$var wire 1 L$ inst4|frame_counter [4] $end
$var wire 1 M$ inst4|frame_counter [3] $end
$var wire 1 N$ inst4|frame_counter [2] $end
$var wire 1 O$ inst4|frame_counter [1] $end
$var wire 1 P$ inst4|frame_counter [0] $end
$var wire 1 Q$ inst1|inst2|de [0] $end
$var wire 1 R$ inst1|inst2|de [1] $end
$var wire 1 S$ inst1|inst2|de [2] $end
$var wire 1 T$ inst4|row_counter [0] $end
$var wire 1 U$ inst4|row_counter [1] $end
$var wire 1 V$ inst4|row_counter [2] $end
$var wire 1 W$ inst|current_player [31] $end
$var wire 1 X$ inst|current_player [30] $end
$var wire 1 Y$ inst|current_player [29] $end
$var wire 1 Z$ inst|current_player [28] $end
$var wire 1 [$ inst|current_player [27] $end
$var wire 1 \$ inst|current_player [26] $end
$var wire 1 ]$ inst|current_player [25] $end
$var wire 1 ^$ inst|current_player [24] $end
$var wire 1 _$ inst|current_player [23] $end
$var wire 1 `$ inst|current_player [22] $end
$var wire 1 a$ inst|current_player [21] $end
$var wire 1 b$ inst|current_player [20] $end
$var wire 1 c$ inst|current_player [19] $end
$var wire 1 d$ inst|current_player [18] $end
$var wire 1 e$ inst|current_player [17] $end
$var wire 1 f$ inst|current_player [16] $end
$var wire 1 g$ inst|current_player [15] $end
$var wire 1 h$ inst|current_player [14] $end
$var wire 1 i$ inst|current_player [13] $end
$var wire 1 j$ inst|current_player [12] $end
$var wire 1 k$ inst|current_player [11] $end
$var wire 1 l$ inst|current_player [10] $end
$var wire 1 m$ inst|current_player [9] $end
$var wire 1 n$ inst|current_player [8] $end
$var wire 1 o$ inst|current_player [7] $end
$var wire 1 p$ inst|current_player [6] $end
$var wire 1 q$ inst|current_player [5] $end
$var wire 1 r$ inst|current_player [4] $end
$var wire 1 s$ inst|current_player [3] $end
$var wire 1 t$ inst|current_player [2] $end
$var wire 1 u$ inst|current_player [1] $end
$var wire 1 v$ inst|current_player [0] $end
$var wire 1 w$ inst|current_state [31] $end
$var wire 1 x$ inst|current_state [30] $end
$var wire 1 y$ inst|current_state [29] $end
$var wire 1 z$ inst|current_state [28] $end
$var wire 1 {$ inst|current_state [27] $end
$var wire 1 |$ inst|current_state [26] $end
$var wire 1 }$ inst|current_state [25] $end
$var wire 1 ~$ inst|current_state [24] $end
$var wire 1 !% inst|current_state [23] $end
$var wire 1 "% inst|current_state [22] $end
$var wire 1 #% inst|current_state [21] $end
$var wire 1 $% inst|current_state [20] $end
$var wire 1 %% inst|current_state [19] $end
$var wire 1 &% inst|current_state [18] $end
$var wire 1 '% inst|current_state [17] $end
$var wire 1 (% inst|current_state [16] $end
$var wire 1 )% inst|current_state [15] $end
$var wire 1 *% inst|current_state [14] $end
$var wire 1 +% inst|current_state [13] $end
$var wire 1 ,% inst|current_state [12] $end
$var wire 1 -% inst|current_state [11] $end
$var wire 1 .% inst|current_state [10] $end
$var wire 1 /% inst|current_state [9] $end
$var wire 1 0% inst|current_state [8] $end
$var wire 1 1% inst|current_state [7] $end
$var wire 1 2% inst|current_state [6] $end
$var wire 1 3% inst|current_state [5] $end
$var wire 1 4% inst|current_state [4] $end
$var wire 1 5% inst|current_state [3] $end
$var wire 1 6% inst|current_state [2] $end
$var wire 1 7% inst|current_state [1] $end
$var wire 1 8% inst|current_state [0] $end
$var wire 1 9% inst1|inst1|digit [3] $end
$var wire 1 :% inst1|inst1|digit [2] $end
$var wire 1 ;% inst1|inst1|digit [1] $end
$var wire 1 <% inst1|inst1|digit [0] $end
$var wire 1 =% inst|p1_score [0] $end
$var wire 1 >% inst|p1_score [1] $end
$var wire 1 ?% inst1|inst2|op [0] $end
$var wire 1 @% inst1|inst2|op [1] $end
$var wire 1 A% inst1|inst2|op [2] $end
$var wire 1 B% inst1|inst|digit [3] $end
$var wire 1 C% inst1|inst|digit [2] $end
$var wire 1 D% inst1|inst|digit [1] $end
$var wire 1 E% inst1|inst|digit [0] $end
$var wire 1 F% inst|p2_score [0] $end
$var wire 1 G% inst|p2_score [1] $end
$var wire 1 H% inst|Random_Seg [0] $end
$var wire 1 I% inst|Random_Seg [1] $end
$var wire 1 J% inst|Random_Seg [2] $end
$var wire 1 K% inst|Random_Seg [3] $end
$var wire 1 L% inst1|inst2|temp [0] $end
$var wire 1 M% inst1|inst2|temp [1] $end
$var wire 1 N% inst1|inst2|temp [2] $end
$var wire 1 O% inst1|inst2|temp [3] $end
$var wire 1 P% inst1|inst2|temp [4] $end
$var wire 1 Q% inst1|inst2|temp [5] $end
$var wire 1 R% inst1|inst2|temp [6] $end
$upscope $end
$upscope $end
$enddefinitions $end
#0
$dumpvars
0!
0"
0#
0$
0%
1&
1'
1(
0)
1*
0.
0-
0,
0+
1/
00
01
02
13
14
05
0=
0<
0;
0:
09
08
07
06
0?
0>
0A
0@
0E
0D
0C
0B
0M
0L
0K
0J
0I
0H
0G
0F
1U
0T
0S
0R
0Q
0P
0O
0N
xV
0W
1X
xY
1Z
1[
1\
0]
0^
0_
0`
1a
0b
1c
0d
1e
1f
1g
0h
0i
0j
0k
0l
1m
0n
0o
0p
0q
0r
0s
0t
0u
0v
0w
0x
0y
0z
0{
0|
0}
0~
0!!
0"!
0#!
0$!
0%!
0&!
0'!
0(!
0)!
0*!
0+!
0,!
0-!
0.!
0/!
00!
01!
02!
03!
04!
05!
06!
07!
08!
09!
0:!
0;!
0<!
0=!
0>!
0?!
0@!
0A!
0B!
0C!
0D!
0E!
1F!
0G!
0H!
0I!
0J!
0K!
0L!
0M!
0N!
0O!
0P!
0Q!
0R!
0S!
0T!
1U!
1V!
0W!
0X!
1Y!
1Z!
0[!
1\!
0]!
0^!
1_!
0`!
0a!
0b!
1c!
1d!
0e!
0f!
1g!
0h!
0i!
1j!
0k!
0l!
0m!
0n!
0o!
0p!
0q!
0r!
0s!
0t!
0u!
0v!
0w!
0x!
0y!
0z!
0{!
0|!
1}!
0~!
1!"
0""
1#"
1$"
0%"
0&"
0'"
0("
0)"
1*"
0+"
0,"
1-"
0."
1/"
10"
11"
02"
03"
14"
05"
06"
07"
18"
09"
0:"
0;"
0<"
0="
1>"
1?"
1@"
1A"
0B"
1C"
0D"
0E"
0F"
0G"
0H"
0I"
0J"
0K"
0L"
0M"
0N"
0O"
0P"
0Q"
0R"
0S"
0T"
0U"
0V"
0W"
0X"
0Y"
0Z"
0["
0\"
0]"
0^"
0_"
0`"
0a"
0b"
0c"
0d"
0e"
0f"
0g"
0h"
0i"
0j"
0k"
0l"
0m"
0n"
0o"
0p"
0q"
0r"
0s"
0t"
0u"
0v"
0w"
1x"
0y"
0z"
0{"
0|"
0}"
0~"
0!#
0"#
0##
0$#
1%#
0&#
0'#
0(#
0)#
0*#
0+#
0,#
0-#
0.#
0/#
00#
01#
12#
13#
04#
05#
06#
07#
08#
09#
0:#
0;#
0<#
1=#
0>#
1?#
0@#
0A#
0B#
0C#
0D#
0E#
1F#
0G#
0H#
0I#
0J#
1K#
0L#
0M#
0N#
0O#
0P#
0Q#
0R#
0S#
0T#
0U#
0V#
0W#
0X#
0Y#
0Z#
0[#
1\#
1]#
0^#
0_#
0`#
0a#
0b#
0c#
0d#
0e#
1f#
0g#
0h#
1i#
0j#
1k#
0l#
0m#
0n#
0o#
0p#
0q#
0r#
0s#
0t#
1u#
0v#
0w#
0x#
1y#
0z#
0{#
0|#
0}#
0~#
0!$
0"$
0#$
0$$
0%$
0&$
0'$
1($
0,$
0+$
0*$
0)$
00$
0/$
0.$
0-$
0P$
0O$
0N$
0M$
0L$
0K$
0J$
0I$
0H$
0G$
0F$
0E$
0D$
0C$
0B$
0A$
0@$
0?$
0>$
0=$
0<$
0;$
0:$
09$
08$
07$
06$
05$
04$
03$
02$
01$
0S$
0R$
0Q$
0V$
0U$
0T$
0v$
0u$
0t$
0s$
0r$
0q$
0p$
0o$
0n$
0m$
0l$
0k$
0j$
0i$
0h$
0g$
0f$
0e$
0d$
0c$
0b$
0a$
0`$
0_$
0^$
0]$
0\$
0[$
0Z$
0Y$
0X$
0W$
08%
07%
z6%
z5%
z4%
z3%
z2%
z1%
z0%
z/%
z.%
z-%
z,%
z+%
z*%
z)%
z(%
z'%
z&%
z%%
z$%
z#%
z"%
z!%
z~$
z}$
z|$
z{$
zz$
zy$
zx$
zw$
0<%
0;%
0:%
09%
0>%
0=%
0A%
0@%
0?%
0E%
0D%
0C%
0B%
0G%
0F%
0K%
0J%
0I%
0H%
0R%
1Q%
1P%
1O%
1N%
1M%
1L%
$end
#10000
1!
1^
1_
0V
1+$
1,$
1A%
0f
0c!
1`
0a
1~!
1)"
1."
00"
1S$
10"
12
0P%
03
1P%
13
#20000
0!
0^
0_
1V
#30000
1!
1^
1_
0V
0,$
0A%
1@%
1d
1f
0g
1c!
1a
0~!
0)"
0*"
13"
0S$
1R$
1*"
1v"
02
11
0N%
0*
1N%
1*
#40000
0!
0^
0_
1V
#50000
1!
1^
1_
0V
0+$
1,$
1*$
1A%
0f
0c!
0`
0a
1b
1~!
1S$
12
#60000
0!
0^
0_
1V
#70000
1!
1^
1_
0V
0,$
1?%
0A%
0@%
1f
1g
1c!
1a
0~!
0!"
1""
0#"
0."
0/"
12"
1Q$
0S$
0R$
1!"
0v"
10
02
01
#80000
0!
0^
0_
1V
#90000
1!
1^
1_
0V
1+$
1,$
1A%
0f
0c!
0a
0b
1)"
1S$
12
#100000
0!
0^
0_
1V
#110000
1!
1^
1_
0V
0,$
0?%
0A%
0d
1f
0g
1h
1c!
1a
0""
1#"
1/"
02"
03"
0)"
0Q$
0S$
00
02
#120000
0!
0^
0_
1V
#130000
1!
1^
1_
0V
1)$
0+$
1,$
0*$
1A%
0f
0c!
1`
0a
1~!
1)"
1."
00"
1S$
10"
12
0P%
03
1P%
13
#140000
0!
0^
0_
1V
